<?xml version="1.0" encoding="UTF-8"?>
<svg xmlns="http://www.w3.org/2000/svg" xmlns:xlink="http://www.w3.org/1999/xlink" width="504pt" height="504pt" viewBox="0 0 504 504" version="1.1">
<defs>
<g>
<symbol overflow="visible" id="glyph0-0">
<path style="stroke:none;" d="M 4.46875 0 L 3.414063 0 L 3.414063 -6.71875 C 3.160156 -6.476563 2.828125 -6.234375 2.414063 -5.996094 C 2 -5.75 1.628906 -5.570313 1.304688 -5.449219 L 1.304688 -6.46875 C 1.894531 -6.742188 2.410156 -7.078125 2.851563 -7.476563 C 3.292969 -7.871094 3.605469 -8.253906 3.789063 -8.625 L 4.46875 -8.625 Z M 4.46875 0 "/>
</symbol>
<symbol overflow="visible" id="glyph0-1">
<path style="stroke:none;" d="M 4.828125 0 L 4.828125 -0.785156 C 4.429688 -0.167969 3.847656 0.140625 3.085938 0.140625 C 2.589844 0.140625 2.132813 0.00390625 1.71875 -0.269531 C 1.296875 -0.542969 0.976563 -0.921875 0.75 -1.414063 C 0.523438 -1.898438 0.410156 -2.464844 0.410156 -3.105469 C 0.410156 -3.726563 0.511719 -4.289063 0.71875 -4.796875 C 0.925781 -5.300781 1.238281 -5.6875 1.652344 -5.957031 C 2.066406 -6.226563 2.527344 -6.363281 3.039063 -6.363281 C 3.410156 -6.363281 3.746094 -6.28125 4.042969 -6.125 C 4.335938 -5.964844 4.574219 -5.761719 4.757813 -5.507813 L 4.757813 -8.589844 L 5.804688 -8.589844 L 5.804688 0 Z M 1.492188 -3.105469 C 1.488281 -2.308594 1.65625 -1.710938 1.996094 -1.316406 C 2.328125 -0.921875 2.726563 -0.726563 3.1875 -0.726563 C 3.648438 -0.726563 4.039063 -0.914063 4.359375 -1.292969 C 4.679688 -1.667969 4.839844 -2.242188 4.84375 -3.015625 C 4.839844 -3.867188 4.675781 -4.492188 4.351563 -4.894531 C 4.019531 -5.289063 3.617188 -5.488281 3.140625 -5.492188 C 2.671875 -5.488281 2.277344 -5.296875 1.964844 -4.917969 C 1.644531 -4.53125 1.488281 -3.929688 1.492188 -3.105469 Z M 1.492188 -3.105469 "/>
</symbol>
<symbol overflow="visible" id="glyph0-2">
<path style="stroke:none;" d="M 0.398438 -3.109375 C 0.398438 -4.261719 0.71875 -5.117188 1.359375 -5.671875 C 1.894531 -6.132813 2.546875 -6.363281 3.316406 -6.363281 C 4.171875 -6.363281 4.871094 -6.082031 5.414063 -5.519531 C 5.953125 -4.957031 6.222656 -4.183594 6.226563 -3.199219 C 6.222656 -2.398438 6.101563 -1.765625 5.867188 -1.308594 C 5.625 -0.847656 5.277344 -0.492188 4.820313 -0.238281 C 4.359375 0.015625 3.859375 0.140625 3.316406 0.140625 C 2.441406 0.140625 1.734375 -0.136719 1.203125 -0.695313 C 0.664063 -1.253906 0.398438 -2.058594 0.398438 -3.109375 Z M 1.484375 -3.109375 C 1.480469 -2.308594 1.65625 -1.710938 2.003906 -1.320313 C 2.347656 -0.921875 2.785156 -0.726563 3.316406 -0.726563 C 3.839844 -0.726563 4.273438 -0.925781 4.621094 -1.324219 C 4.96875 -1.722656 5.144531 -2.328125 5.144531 -3.148438 C 5.144531 -3.914063 4.96875 -4.496094 4.617188 -4.894531 C 4.265625 -5.289063 3.832031 -5.488281 3.316406 -5.492188 C 2.785156 -5.488281 2.347656 -5.292969 2.003906 -4.898438 C 1.65625 -4.5 1.480469 -3.902344 1.484375 -3.109375 Z M 1.484375 -3.109375 "/>
</symbol>
<symbol overflow="visible" id="glyph0-3">
<path style="stroke:none;" d="M 4.851563 -2.28125 L 5.890625 -2.144531 C 5.773438 -1.425781 5.484375 -0.863281 5.019531 -0.464844 C 4.550781 -0.0585938 3.976563 0.140625 3.296875 0.140625 C 2.445313 0.140625 1.761719 -0.136719 1.246094 -0.695313 C 0.726563 -1.25 0.46875 -2.046875 0.46875 -3.085938 C 0.46875 -3.753906 0.578125 -4.34375 0.800781 -4.851563 C 1.023438 -5.355469 1.363281 -5.730469 1.816406 -5.984375 C 2.269531 -6.234375 2.765625 -6.363281 3.304688 -6.363281 C 3.980469 -6.363281 4.53125 -6.191406 4.964844 -5.847656 C 5.390625 -5.503906 5.667969 -5.019531 5.789063 -4.394531 L 4.765625 -4.234375 C 4.664063 -4.652344 4.492188 -4.96875 4.246094 -5.179688 C 3.996094 -5.390625 3.695313 -5.496094 3.34375 -5.496094 C 2.808594 -5.496094 2.378906 -5.304688 2.050781 -4.921875 C 1.71875 -4.539063 1.550781 -3.9375 1.554688 -3.117188 C 1.550781 -2.28125 1.710938 -1.671875 2.035156 -1.292969 C 2.351563 -0.914063 2.769531 -0.726563 3.289063 -0.726563 C 3.695313 -0.726563 4.042969 -0.851563 4.324219 -1.105469 C 4.601563 -1.359375 4.777344 -1.75 4.851563 -2.28125 Z M 4.851563 -2.28125 "/>
</symbol>
<symbol overflow="visible" id="glyph0-4">
<path style="stroke:none;" d="M 0.503906 -2.265625 L 1.558594 -2.40625 C 1.679688 -1.808594 1.882813 -1.378906 2.175781 -1.113281 C 2.464844 -0.847656 2.820313 -0.714844 3.242188 -0.71875 C 3.734375 -0.714844 4.152344 -0.886719 4.496094 -1.234375 C 4.832031 -1.574219 5.003906 -2 5.007813 -2.515625 C 5.003906 -2.996094 4.847656 -3.394531 4.535156 -3.710938 C 4.21875 -4.023438 3.816406 -4.183594 3.328125 -4.183594 C 3.128906 -4.183594 2.878906 -4.144531 2.585938 -4.066406 L 2.703125 -4.992188 C 2.765625 -4.984375 2.824219 -4.980469 2.871094 -4.980469 C 3.320313 -4.980469 3.722656 -5.097656 4.085938 -5.332031 C 4.441406 -5.566406 4.621094 -5.925781 4.625 -6.414063 C 4.621094 -6.800781 4.492188 -7.121094 4.230469 -7.375 C 3.964844 -7.628906 3.625 -7.757813 3.21875 -7.757813 C 2.804688 -7.757813 2.464844 -7.628906 2.191406 -7.371094 C 1.917969 -7.113281 1.742188 -6.726563 1.664063 -6.210938 L 0.609375 -6.398438 C 0.738281 -7.105469 1.03125 -7.652344 1.488281 -8.042969 C 1.941406 -8.429688 2.507813 -8.625 3.195313 -8.625 C 3.660156 -8.625 4.09375 -8.523438 4.488281 -8.324219 C 4.878906 -8.121094 5.179688 -7.847656 5.390625 -7.5 C 5.601563 -7.148438 5.707031 -6.777344 5.707031 -6.390625 C 5.707031 -6.019531 5.605469 -5.683594 5.40625 -5.378906 C 5.207031 -5.074219 4.914063 -4.832031 4.523438 -4.652344 C 5.03125 -4.535156 5.425781 -4.289063 5.707031 -3.921875 C 5.988281 -3.546875 6.128906 -3.085938 6.128906 -2.539063 C 6.128906 -1.785156 5.855469 -1.148438 5.308594 -0.628906 C 4.761719 -0.105469 4.070313 0.152344 3.234375 0.152344 C 2.476563 0.152344 1.847656 -0.0703125 1.355469 -0.519531 C 0.855469 -0.96875 0.574219 -1.550781 0.503906 -2.265625 Z M 0.503906 -2.265625 "/>
</symbol>
<symbol overflow="visible" id="glyph0-5">
<path style="stroke:none;" d="M 6.039063 -1.015625 L 6.039063 0 L 0.363281 0 C 0.355469 -0.253906 0.394531 -0.496094 0.484375 -0.734375 C 0.628906 -1.117188 0.859375 -1.5 1.179688 -1.875 C 1.492188 -2.25 1.953125 -2.683594 2.5625 -3.175781 C 3.492188 -3.941406 4.125 -4.546875 4.453125 -4.992188 C 4.78125 -5.4375 4.945313 -5.859375 4.945313 -6.265625 C 4.945313 -6.679688 4.792969 -7.03125 4.496094 -7.320313 C 4.191406 -7.601563 3.804688 -7.746094 3.328125 -7.75 C 2.820313 -7.746094 2.414063 -7.59375 2.109375 -7.292969 C 1.804688 -6.984375 1.648438 -6.5625 1.648438 -6.03125 L 0.5625 -6.140625 C 0.632813 -6.945313 0.910156 -7.558594 1.398438 -7.988281 C 1.878906 -8.410156 2.53125 -8.625 3.351563 -8.625 C 4.171875 -8.625 4.824219 -8.394531 5.308594 -7.9375 C 5.789063 -7.480469 6.027344 -6.914063 6.03125 -6.242188 C 6.027344 -5.894531 5.957031 -5.558594 5.820313 -5.226563 C 5.675781 -4.890625 5.441406 -4.539063 5.117188 -4.175781 C 4.789063 -3.804688 4.25 -3.300781 3.492188 -2.664063 C 2.859375 -2.128906 2.453125 -1.769531 2.273438 -1.582031 C 2.09375 -1.394531 1.945313 -1.203125 1.828125 -1.015625 Z M 6.039063 -1.015625 "/>
</symbol>
<symbol overflow="visible" id="glyph0-6">
<path style="stroke:none;" d="M 1.089844 0 L 1.089844 -1.203125 L 2.289063 -1.203125 L 2.289063 0 Z M 1.089844 0 "/>
</symbol>
<symbol overflow="visible" id="glyph0-7">
<path style="stroke:none;" d="M 3.09375 -0.945313 L 3.246094 -0.0117188 C 2.949219 0.0507813 2.683594 0.0820313 2.449219 0.0820313 C 2.066406 0.0820313 1.769531 0.0234375 1.558594 -0.0976563 C 1.347656 -0.21875 1.199219 -0.378906 1.113281 -0.578125 C 1.027344 -0.773438 0.984375 -1.1875 0.984375 -1.820313 L 0.984375 -5.402344 L 0.210938 -5.402344 L 0.210938 -6.222656 L 0.984375 -6.222656 L 0.984375 -7.765625 L 2.03125 -8.398438 L 2.03125 -6.222656 L 3.09375 -6.222656 L 3.09375 -5.402344 L 2.03125 -5.402344 L 2.03125 -1.765625 C 2.027344 -1.460938 2.046875 -1.269531 2.085938 -1.183594 C 2.125 -1.097656 2.183594 -1.027344 2.269531 -0.976563 C 2.351563 -0.925781 2.472656 -0.902344 2.632813 -0.902344 C 2.742188 -0.902344 2.898438 -0.914063 3.09375 -0.945313 Z M 3.09375 -0.945313 "/>
</symbol>
<symbol overflow="visible" id="glyph0-8">
<path style="stroke:none;" d="M 0.0859375 0 L 2.359375 -3.234375 L 0.257813 -6.222656 L 1.578125 -6.222656 L 2.53125 -4.765625 C 2.710938 -4.484375 2.855469 -4.253906 2.964844 -4.066406 C 3.136719 -4.324219 3.292969 -4.550781 3.4375 -4.75 L 4.488281 -6.222656 L 5.75 -6.222656 L 3.597656 -3.292969 L 5.914063 0 L 4.617188 0 L 3.339844 -1.933594 L 3 -2.453125 L 1.367188 0 Z M 0.0859375 0 "/>
</symbol>
<symbol overflow="visible" id="glyph0-9">
<path style="stroke:none;" d="M 0.5 -2.25 L 1.605469 -2.34375 C 1.683594 -1.804688 1.871094 -1.398438 2.175781 -1.125 C 2.472656 -0.851563 2.835938 -0.714844 3.257813 -0.71875 C 3.765625 -0.714844 4.195313 -0.90625 4.546875 -1.292969 C 4.898438 -1.671875 5.074219 -2.179688 5.074219 -2.820313 C 5.074219 -3.414063 4.902344 -3.890625 4.566406 -4.242188 C 4.226563 -4.589844 3.785156 -4.761719 3.242188 -4.765625 C 2.898438 -4.761719 2.59375 -4.683594 2.320313 -4.53125 C 2.046875 -4.375 1.832031 -4.175781 1.675781 -3.929688 L 0.6875 -4.0625 L 1.515625 -8.472656 L 5.789063 -8.472656 L 5.789063 -7.464844 L 2.359375 -7.464844 L 1.898438 -5.15625 C 2.414063 -5.515625 2.953125 -5.695313 3.523438 -5.695313 C 4.269531 -5.695313 4.902344 -5.433594 5.421875 -4.914063 C 5.933594 -4.394531 6.191406 -3.726563 6.195313 -2.914063 C 6.191406 -2.132813 5.964844 -1.460938 5.515625 -0.898438 C 4.960938 -0.199219 4.210938 0.144531 3.257813 0.148438 C 2.476563 0.144531 1.835938 -0.0703125 1.34375 -0.507813 C 0.84375 -0.941406 0.5625 -1.523438 0.5 -2.25 Z M 0.5 -2.25 "/>
</symbol>
<symbol overflow="visible" id="glyph0-10">
<path style="stroke:none;" d="M 5.96875 -6.484375 L 4.921875 -6.40625 C 4.828125 -6.8125 4.695313 -7.113281 4.523438 -7.304688 C 4.234375 -7.605469 3.882813 -7.757813 3.46875 -7.757813 C 3.132813 -7.757813 2.835938 -7.664063 2.585938 -7.476563 C 2.25 -7.234375 1.988281 -6.878906 1.796875 -6.414063 C 1.605469 -5.949219 1.507813 -5.289063 1.5 -4.429688 C 1.753906 -4.8125 2.0625 -5.097656 2.433594 -5.289063 C 2.796875 -5.472656 3.183594 -5.566406 3.585938 -5.570313 C 4.289063 -5.566406 4.886719 -5.308594 5.382813 -4.792969 C 5.875 -4.277344 6.121094 -3.609375 6.125 -2.789063 C 6.121094 -2.25 6.003906 -1.746094 5.773438 -1.285156 C 5.539063 -0.820313 5.222656 -0.46875 4.816406 -0.222656 C 4.410156 0.0234375 3.949219 0.144531 3.433594 0.148438 C 2.554688 0.144531 1.835938 -0.175781 1.285156 -0.820313 C 0.726563 -1.46875 0.449219 -2.535156 0.453125 -4.019531 C 0.449219 -5.675781 0.757813 -6.882813 1.371094 -7.640625 C 1.902344 -8.296875 2.621094 -8.625 3.53125 -8.625 C 4.207031 -8.625 4.761719 -8.433594 5.195313 -8.054688 C 5.625 -7.675781 5.882813 -7.152344 5.96875 -6.484375 Z M 1.664063 -2.78125 C 1.664063 -2.417969 1.738281 -2.070313 1.894531 -1.738281 C 2.042969 -1.40625 2.261719 -1.152344 2.542969 -0.980469 C 2.820313 -0.800781 3.109375 -0.714844 3.414063 -0.71875 C 3.859375 -0.714844 4.242188 -0.894531 4.566406 -1.257813 C 4.882813 -1.613281 5.042969 -2.101563 5.046875 -2.726563 C 5.042969 -3.316406 4.886719 -3.785156 4.570313 -4.128906 C 4.25 -4.46875 3.851563 -4.640625 3.375 -4.640625 C 2.898438 -4.640625 2.492188 -4.46875 2.160156 -4.128906 C 1.828125 -3.785156 1.664063 -3.335938 1.664063 -2.78125 Z M 1.664063 -2.78125 "/>
</symbol>
<symbol overflow="visible" id="glyph0-11">
<path style="stroke:none;" d="M 0.65625 -1.984375 L 1.671875 -2.078125 C 1.75 -1.601563 1.914063 -1.257813 2.160156 -1.042969 C 2.398438 -0.824219 2.710938 -0.714844 3.09375 -0.71875 C 3.414063 -0.714844 3.695313 -0.789063 3.945313 -0.941406 C 4.1875 -1.085938 4.390625 -1.285156 4.546875 -1.535156 C 4.703125 -1.785156 4.832031 -2.121094 4.9375 -2.542969 C 5.042969 -2.964844 5.097656 -3.394531 5.097656 -3.832031 C 5.097656 -3.878906 5.09375 -3.949219 5.09375 -4.042969 C 4.875 -3.707031 4.585938 -3.433594 4.226563 -3.226563 C 3.859375 -3.015625 3.464844 -2.910156 3.039063 -2.914063 C 2.328125 -2.910156 1.726563 -3.167969 1.238281 -3.6875 C 0.742188 -4.199219 0.496094 -4.878906 0.5 -5.726563 C 0.496094 -6.59375 0.753906 -7.296875 1.269531 -7.828125 C 1.78125 -8.359375 2.425781 -8.625 3.199219 -8.625 C 3.757813 -8.625 4.265625 -8.472656 4.730469 -8.171875 C 5.191406 -7.871094 5.542969 -7.441406 5.785156 -6.886719 C 6.023438 -6.328125 6.144531 -5.523438 6.148438 -4.46875 C 6.144531 -3.371094 6.027344 -2.496094 5.789063 -1.847656 C 5.546875 -1.195313 5.191406 -0.703125 4.722656 -0.363281 C 4.253906 -0.0234375 3.703125 0.144531 3.070313 0.148438 C 2.398438 0.144531 1.847656 -0.0390625 1.421875 -0.410156 C 0.996094 -0.785156 0.742188 -1.308594 0.65625 -1.984375 Z M 4.976563 -5.777344 C 4.972656 -6.382813 4.8125 -6.863281 4.492188 -7.21875 C 4.167969 -7.570313 3.78125 -7.746094 3.328125 -7.75 C 2.859375 -7.746094 2.449219 -7.554688 2.101563 -7.175781 C 1.753906 -6.789063 1.582031 -6.292969 1.582031 -5.6875 C 1.582031 -5.136719 1.746094 -4.691406 2.074219 -4.355469 C 2.402344 -4.011719 2.808594 -3.84375 3.296875 -3.84375 C 3.785156 -3.84375 4.1875 -4.011719 4.503906 -4.355469 C 4.816406 -4.691406 4.972656 -5.167969 4.976563 -5.777344 Z M 4.976563 -5.777344 "/>
</symbol>
<symbol overflow="visible" id="glyph0-12">
<path style="stroke:none;" d="M 0.570313 -7.464844 L 0.570313 -8.476563 L 6.128906 -8.476563 L 6.128906 -7.65625 C 5.582031 -7.074219 5.039063 -6.300781 4.5 -5.335938 C 3.960938 -4.371094 3.546875 -3.378906 3.257813 -2.359375 C 3.046875 -1.636719 2.910156 -0.851563 2.851563 0 L 1.769531 0 C 1.78125 -0.675781 1.914063 -1.492188 2.167969 -2.449219 C 2.417969 -3.402344 2.78125 -4.324219 3.257813 -5.214844 C 3.734375 -6.105469 4.238281 -6.855469 4.773438 -7.464844 Z M 0.570313 -7.464844 "/>
</symbol>
<symbol overflow="visible" id="glyph0-13">
<path style="stroke:none;" d="M 3.878906 0 L 3.878906 -2.054688 L 0.152344 -2.054688 L 0.152344 -3.023438 L 4.070313 -8.589844 L 4.933594 -8.589844 L 4.933594 -3.023438 L 6.09375 -3.023438 L 6.09375 -2.054688 L 4.933594 -2.054688 L 4.933594 0 Z M 3.878906 -3.023438 L 3.878906 -6.898438 L 1.1875 -3.023438 Z M 3.878906 -3.023438 "/>
</symbol>
<symbol overflow="visible" id="glyph0-14">
<path style="stroke:none;" d="M 2.121094 -4.65625 C 1.683594 -4.816406 1.359375 -5.046875 1.148438 -5.34375 C 0.9375 -5.640625 0.832031 -5.996094 0.832031 -6.410156 C 0.832031 -7.035156 1.054688 -7.558594 1.503906 -7.984375 C 1.953125 -8.410156 2.550781 -8.625 3.296875 -8.625 C 4.042969 -8.625 4.648438 -8.40625 5.109375 -7.972656 C 5.566406 -7.535156 5.792969 -7.003906 5.796875 -6.382813 C 5.792969 -5.976563 5.6875 -5.628906 5.480469 -5.339844 C 5.269531 -5.042969 4.953125 -4.816406 4.53125 -4.65625 C 5.054688 -4.480469 5.457031 -4.203125 5.734375 -3.824219 C 6.007813 -3.4375 6.144531 -2.980469 6.148438 -2.453125 C 6.144531 -1.714844 5.886719 -1.097656 5.367188 -0.601563 C 4.84375 -0.101563 4.160156 0.144531 3.316406 0.148438 C 2.46875 0.144531 1.785156 -0.101563 1.265625 -0.605469 C 0.742188 -1.105469 0.480469 -1.734375 0.484375 -2.484375 C 0.480469 -3.039063 0.621094 -3.503906 0.910156 -3.886719 C 1.191406 -4.261719 1.597656 -4.519531 2.121094 -4.65625 Z M 1.910156 -6.445313 C 1.910156 -6.039063 2.039063 -5.707031 2.300781 -5.449219 C 2.5625 -5.191406 2.902344 -5.0625 3.320313 -5.0625 C 3.722656 -5.0625 4.054688 -5.1875 4.320313 -5.445313 C 4.578125 -5.695313 4.710938 -6.011719 4.710938 -6.386719 C 4.710938 -6.773438 4.574219 -7.097656 4.308594 -7.363281 C 4.035156 -7.625 3.703125 -7.757813 3.3125 -7.757813 C 2.90625 -7.757813 2.574219 -7.628906 2.308594 -7.371094 C 2.042969 -7.113281 1.910156 -6.804688 1.910156 -6.445313 Z M 1.570313 -2.476563 C 1.570313 -2.175781 1.640625 -1.886719 1.785156 -1.605469 C 1.925781 -1.324219 2.136719 -1.105469 2.421875 -0.949219 C 2.699219 -0.792969 3.003906 -0.714844 3.328125 -0.71875 C 3.832031 -0.714844 4.246094 -0.878906 4.578125 -1.207031 C 4.902344 -1.53125 5.066406 -1.941406 5.070313 -2.445313 C 5.066406 -2.945313 4.898438 -3.367188 4.5625 -3.703125 C 4.222656 -4.035156 3.800781 -4.199219 3.292969 -4.203125 C 2.792969 -4.199219 2.378906 -4.035156 2.058594 -3.710938 C 1.730469 -3.378906 1.570313 -2.96875 1.570313 -2.476563 Z M 1.570313 -2.476563 "/>
</symbol>
<symbol overflow="visible" id="glyph0-15">
<path style="stroke:none;" d="M 0.5 -4.234375 C 0.496094 -5.246094 0.601563 -6.0625 0.8125 -6.6875 C 1.019531 -7.304688 1.328125 -7.785156 1.742188 -8.121094 C 2.148438 -8.457031 2.667969 -8.625 3.296875 -8.625 C 3.757813 -8.625 4.164063 -8.53125 4.511719 -8.347656 C 4.855469 -8.160156 5.140625 -7.890625 5.371094 -7.542969 C 5.59375 -7.191406 5.773438 -6.765625 5.90625 -6.265625 C 6.035156 -5.761719 6.097656 -5.085938 6.101563 -4.234375 C 6.097656 -3.226563 5.996094 -2.414063 5.789063 -1.796875 C 5.578125 -1.175781 5.265625 -0.695313 4.859375 -0.359375 C 4.445313 -0.0195313 3.925781 0.144531 3.296875 0.148438 C 2.464844 0.144531 1.816406 -0.148438 1.347656 -0.742188 C 0.78125 -1.457031 0.496094 -2.621094 0.5 -4.234375 Z M 1.582031 -4.234375 C 1.582031 -2.824219 1.746094 -1.886719 2.074219 -1.417969 C 2.402344 -0.949219 2.808594 -0.714844 3.296875 -0.71875 C 3.777344 -0.714844 4.183594 -0.949219 4.519531 -1.421875 C 4.847656 -1.886719 5.015625 -2.824219 5.015625 -4.234375 C 5.015625 -5.648438 4.847656 -6.589844 4.519531 -7.054688 C 4.183594 -7.515625 3.773438 -7.746094 3.289063 -7.75 C 2.800781 -7.746094 2.414063 -7.542969 2.125 -7.136719 C 1.761719 -6.613281 1.582031 -5.644531 1.582031 -4.234375 Z M 1.582031 -4.234375 "/>
</symbol>
</g>
<clipPath id="clip1">
  <path d="M 59.039063 59.039063 L 474.757813 59.039063 L 474.757813 431.558594 L 59.039063 431.558594 Z M 59.039063 59.039063 "/>
</clipPath>
<clipPath id="clip2">
  <path d="M 59.039063 59.039063 L 474.757813 59.039063 L 474.757813 431.558594 L 59.039063 431.558594 Z M 59.039063 59.039063 "/>
</clipPath>
<clipPath id="clip3">
  <path d="M 59.039063 59.039063 L 474.757813 59.039063 L 474.757813 431.558594 L 59.039063 431.558594 Z M 59.039063 59.039063 "/>
</clipPath>
<clipPath id="clip4">
  <path d="M 59.039063 59.039063 L 474.757813 59.039063 L 474.757813 431.558594 L 59.039063 431.558594 Z M 59.039063 59.039063 "/>
</clipPath>
<clipPath id="clip5">
  <path d="M 59.039063 59.039063 L 474.757813 59.039063 L 474.757813 431.558594 L 59.039063 431.558594 Z M 59.039063 59.039063 "/>
</clipPath>
<clipPath id="clip6">
  <path d="M 59.039063 59.039063 L 474.757813 59.039063 L 474.757813 431.558594 L 59.039063 431.558594 Z M 59.039063 59.039063 "/>
</clipPath>
<clipPath id="clip7">
  <path d="M 59.039063 59.039063 L 474.757813 59.039063 L 474.757813 431.558594 L 59.039063 431.558594 Z M 59.039063 59.039063 "/>
</clipPath>
<clipPath id="clip8">
  <path d="M 59.039063 59.039063 L 474.757813 59.039063 L 474.757813 431.558594 L 59.039063 431.558594 Z M 59.039063 59.039063 "/>
</clipPath>
<clipPath id="clip9">
  <path d="M 59.039063 59.039063 L 474.757813 59.039063 L 474.757813 431.558594 L 59.039063 431.558594 Z M 59.039063 59.039063 "/>
</clipPath>
<clipPath id="clip10">
  <path d="M 59.039063 59.039063 L 474.757813 59.039063 L 474.757813 431.558594 L 59.039063 431.558594 Z M 59.039063 59.039063 "/>
</clipPath>
<clipPath id="clip11">
  <path d="M 59.039063 59.039063 L 474.757813 59.039063 L 474.757813 431.558594 L 59.039063 431.558594 Z M 59.039063 59.039063 "/>
</clipPath>
<clipPath id="clip12">
  <path d="M 59.039063 59.039063 L 474.757813 59.039063 L 474.757813 431.558594 L 59.039063 431.558594 Z M 59.039063 59.039063 "/>
</clipPath>
<clipPath id="clip13">
  <path d="M 59.039063 59.039063 L 474.757813 59.039063 L 474.757813 431.558594 L 59.039063 431.558594 Z M 59.039063 59.039063 "/>
</clipPath>
<clipPath id="clip14">
  <path d="M 59.039063 59.039063 L 474.757813 59.039063 L 474.757813 431.558594 L 59.039063 431.558594 Z M 59.039063 59.039063 "/>
</clipPath>
<clipPath id="clip15">
  <path d="M 59.039063 59.039063 L 474.757813 59.039063 L 474.757813 431.558594 L 59.039063 431.558594 Z M 59.039063 59.039063 "/>
</clipPath>
<clipPath id="clip16">
  <path d="M 59.039063 59.039063 L 474.757813 59.039063 L 474.757813 431.558594 L 59.039063 431.558594 Z M 59.039063 59.039063 "/>
</clipPath>
<clipPath id="clip17">
  <path d="M 59.039063 59.039063 L 474.757813 59.039063 L 474.757813 431.558594 L 59.039063 431.558594 Z M 59.039063 59.039063 "/>
</clipPath>
<clipPath id="clip18">
  <path d="M 59.039063 59.039063 L 474.757813 59.039063 L 474.757813 431.558594 L 59.039063 431.558594 Z M 59.039063 59.039063 "/>
</clipPath>
<clipPath id="clip19">
  <path d="M 59.039063 59.039063 L 474.757813 59.039063 L 474.757813 431.558594 L 59.039063 431.558594 Z M 59.039063 59.039063 "/>
</clipPath>
<clipPath id="clip20">
  <path d="M 59.039063 59.039063 L 474.757813 59.039063 L 474.757813 431.558594 L 59.039063 431.558594 Z M 59.039063 59.039063 "/>
</clipPath>
<clipPath id="clip21">
  <path d="M 59.039063 59.039063 L 474.757813 59.039063 L 474.757813 431.558594 L 59.039063 431.558594 Z M 59.039063 59.039063 "/>
</clipPath>
<clipPath id="clip22">
  <path d="M 59.039063 59.039063 L 474.757813 59.039063 L 474.757813 431.558594 L 59.039063 431.558594 Z M 59.039063 59.039063 "/>
</clipPath>
<clipPath id="clip23">
  <path d="M 59.039063 59.039063 L 474.757813 59.039063 L 474.757813 431.558594 L 59.039063 431.558594 Z M 59.039063 59.039063 "/>
</clipPath>
<clipPath id="clip24">
  <path d="M 59.039063 59.039063 L 474.757813 59.039063 L 474.757813 431.558594 L 59.039063 431.558594 Z M 59.039063 59.039063 "/>
</clipPath>
<clipPath id="clip25">
  <path d="M 59.039063 59.039063 L 474.757813 59.039063 L 474.757813 431.558594 L 59.039063 431.558594 Z M 59.039063 59.039063 "/>
</clipPath>
<clipPath id="clip26">
  <path d="M 59.039063 59.039063 L 474.757813 59.039063 L 474.757813 431.558594 L 59.039063 431.558594 Z M 59.039063 59.039063 "/>
</clipPath>
<clipPath id="clip27">
  <path d="M 59.039063 59.039063 L 474.757813 59.039063 L 474.757813 431.558594 L 59.039063 431.558594 Z M 59.039063 59.039063 "/>
</clipPath>
<clipPath id="clip28">
  <path d="M 59.039063 59.039063 L 474.757813 59.039063 L 474.757813 431.558594 L 59.039063 431.558594 Z M 59.039063 59.039063 "/>
</clipPath>
<clipPath id="clip29">
  <path d="M 59.039063 59.039063 L 474.757813 59.039063 L 474.757813 431.558594 L 59.039063 431.558594 Z M 59.039063 59.039063 "/>
</clipPath>
</defs>
<g id="surface41">
<rect x="0" y="0" width="504" height="504" style="fill:rgb(100%,100%,100%);fill-opacity:1;stroke:none;"/>
<g clip-path="url(#clip1)" clip-rule="nonzero">
<path style="fill:none;stroke-width:0.75;stroke-linecap:round;stroke-linejoin:round;stroke:rgb(80%,27.843137%,41.960784%);stroke-opacity:1;stroke-miterlimit:10;" d="M 74.398438 338.753906 L 74.398438 411.742188 "/>
<path style="fill:none;stroke-width:0.75;stroke-linecap:round;stroke-linejoin:round;stroke:rgb(80%,27.843137%,41.960784%);stroke-opacity:1;stroke-miterlimit:10;" d="M 74.398438 411.742188 L 458.398438 411.742188 "/>
<path style="fill-rule:nonzero;fill:rgb(100%,100%,100%);fill-opacity:1;stroke-width:0.75;stroke-linecap:round;stroke-linejoin:round;stroke:rgb(80%,27.843137%,41.960784%);stroke-opacity:1;stroke-miterlimit:10;" d="M 263.0625 420.332031 L 258.066406 411.742188 L 263.0625 403.152344 L 269.738281 403.152344 L 274.734375 411.742188 L 269.738281 420.332031 Z M 263.0625 420.332031 "/>
<g style="fill:rgb(80%,27.843137%,41.960784%);fill-opacity:1;">
  <use xlink:href="#glyph0-0" x="263.0625" y="416.054688"/>
</g>
<path style="fill:none;stroke-width:0.75;stroke-linecap:round;stroke-linejoin:round;stroke:rgb(0%,0%,0%);stroke-opacity:1;stroke-miterlimit:10;" d="M 74.398438 338.753906 L 74.398438 265.769531 "/>
<path style="fill:none;stroke-width:0.75;stroke-linecap:round;stroke-linejoin:round;stroke:rgb(0%,0%,0%);stroke-opacity:1;stroke-miterlimit:10;" d="M 74.398438 265.769531 L 118.28125 265.769531 "/>
</g>
<g style="fill:rgb(0%,0%,0%);fill-opacity:1;">
  <use xlink:href="#glyph0-1" x="464.898438" y="416.035156"/>
  <use xlink:href="#glyph0-2" x="471.572266" y="416.035156"/>
  <use xlink:href="#glyph0-3" x="478.246094" y="416.035156"/>
  <use xlink:href="#glyph0-4" x="484.246094" y="416.035156"/>
  <use xlink:href="#glyph0-5" x="490.919922" y="416.035156"/>
  <use xlink:href="#glyph0-6" x="497.59375" y="416.035156"/>
  <use xlink:href="#glyph0-7" x="500.927734" y="416.035156"/>
  <use xlink:href="#glyph0-8" x="504.261719" y="416.035156"/>
  <use xlink:href="#glyph0-7" x="510.261719" y="416.035156"/>
</g>
<g clip-path="url(#clip2)" clip-rule="nonzero">
<path style="fill:none;stroke-width:0.75;stroke-linecap:round;stroke-linejoin:round;stroke:rgb(13.333333%,54.509804%,0%);stroke-opacity:1;stroke-miterlimit:10;" d="M 118.28125 265.769531 L 118.28125 322.265625 "/>
<path style="fill:none;stroke-width:0.75;stroke-linecap:round;stroke-linejoin:round;stroke:rgb(13.333333%,54.509804%,0%);stroke-opacity:1;stroke-miterlimit:10;" d="M 118.28125 322.265625 L 278.621094 322.265625 "/>
<path style="fill-rule:nonzero;fill:rgb(100%,100%,100%);fill-opacity:1;stroke-width:0.75;stroke-linecap:round;stroke-linejoin:round;stroke:rgb(13.333333%,54.509804%,0%);stroke-opacity:1;stroke-miterlimit:10;" d="M 195.113281 330.855469 L 190.113281 322.265625 L 195.113281 313.675781 L 201.785156 313.675781 L 206.785156 322.265625 L 201.785156 330.855469 Z M 195.113281 330.855469 "/>
<g style="fill:rgb(13.333333%,54.509804%,0%);fill-opacity:1;">
  <use xlink:href="#glyph0-5" x="195.113281" y="326.578125"/>
</g>
<path style="fill:none;stroke-width:0.75;stroke-linecap:round;stroke-linejoin:round;stroke:rgb(0%,50.980392%,80.784314%);stroke-opacity:1;stroke-miterlimit:10;" d="M 118.28125 265.769531 L 118.28125 209.269531 "/>
<path style="fill:none;stroke-width:0.75;stroke-linecap:round;stroke-linejoin:round;stroke:rgb(0%,50.980392%,80.784314%);stroke-opacity:1;stroke-miterlimit:10;" d="M 118.28125 209.269531 L 180.570313 209.269531 "/>
<path style="fill-rule:nonzero;fill:rgb(100%,100%,100%);fill-opacity:1;stroke-width:0.75;stroke-linecap:round;stroke-linejoin:round;stroke:rgb(0%,50.980392%,80.784314%);stroke-opacity:1;stroke-miterlimit:10;" d="M 146.085938 217.859375 L 141.089844 209.269531 L 146.085938 200.679688 L 152.761719 200.679688 L 157.757813 209.269531 L 152.761719 217.859375 Z M 146.085938 217.859375 "/>
<g style="fill:rgb(0%,50.980392%,80.784314%);fill-opacity:1;">
  <use xlink:href="#glyph0-4" x="146.089844" y="213.507813"/>
</g>
<path style="fill:none;stroke-width:0.75;stroke-linecap:round;stroke-linejoin:round;stroke:rgb(13.333333%,54.509804%,0%);stroke-opacity:1;stroke-miterlimit:10;" d="M 278.621094 322.265625 L 278.621094 383.921875 "/>
<path style="fill:none;stroke-width:0.75;stroke-linecap:round;stroke-linejoin:round;stroke:rgb(13.333333%,54.509804%,0%);stroke-opacity:1;stroke-miterlimit:10;" d="M 278.621094 383.921875 L 322.070313 383.921875 "/>
<path style="fill:none;stroke-width:0.75;stroke-linecap:round;stroke-linejoin:round;stroke:rgb(13.333333%,54.509804%,0%);stroke-opacity:1;stroke-miterlimit:10;" d="M 278.621094 322.265625 L 278.621094 260.609375 "/>
<path style="fill:none;stroke-width:0.75;stroke-linecap:round;stroke-linejoin:round;stroke:rgb(13.333333%,54.509804%,0%);stroke-opacity:1;stroke-miterlimit:10;" d="M 278.621094 260.609375 L 294.882813 260.609375 "/>
<path style="fill:none;stroke-width:0.75;stroke-linecap:round;stroke-linejoin:round;stroke:rgb(13.333333%,54.509804%,0%);stroke-opacity:1;stroke-miterlimit:10;" d="M 322.070313 383.921875 L 322.070313 396.566406 "/>
<path style="fill:none;stroke-width:0.75;stroke-linecap:round;stroke-linejoin:round;stroke:rgb(13.333333%,54.509804%,0%);stroke-opacity:1;stroke-miterlimit:10;" d="M 322.070313 396.566406 L 458.398438 396.566406 "/>
<path style="fill:none;stroke-width:0.75;stroke-linecap:round;stroke-linejoin:round;stroke:rgb(13.333333%,54.509804%,0%);stroke-opacity:1;stroke-miterlimit:10;" d="M 322.070313 383.921875 L 322.070313 371.28125 "/>
<path style="fill:none;stroke-width:0.75;stroke-linecap:round;stroke-linejoin:round;stroke:rgb(13.333333%,54.509804%,0%);stroke-opacity:1;stroke-miterlimit:10;" d="M 322.070313 371.28125 L 336.015625 371.28125 "/>
<path style="fill:none;stroke-width:0.75;stroke-linecap:round;stroke-linejoin:round;stroke:rgb(13.333333%,54.509804%,0%);stroke-opacity:1;stroke-miterlimit:10;" d="M 458.398438 396.566406 L 458.398438 401.625 "/>
<path style="fill:none;stroke-width:0.75;stroke-linecap:round;stroke-linejoin:round;stroke:rgb(13.333333%,54.509804%,0%);stroke-opacity:1;stroke-miterlimit:10;" d="M 458.398438 401.625 L 458.398438 401.625 "/>
<path style="fill:none;stroke-width:0.75;stroke-linecap:round;stroke-linejoin:round;stroke:rgb(13.333333%,54.509804%,0%);stroke-opacity:1;stroke-miterlimit:10;" d="M 458.398438 396.566406 L 458.398438 391.507813 "/>
<path style="fill:none;stroke-width:0.75;stroke-linecap:round;stroke-linejoin:round;stroke:rgb(13.333333%,54.509804%,0%);stroke-opacity:1;stroke-miterlimit:10;" d="M 458.398438 391.507813 L 458.398438 391.507813 "/>
</g>
<g style="fill:rgb(0%,0%,0%);fill-opacity:1;">
  <use xlink:href="#glyph0-1" x="464.898438" y="405.917969"/>
  <use xlink:href="#glyph0-2" x="471.572266" y="405.917969"/>
  <use xlink:href="#glyph0-3" x="478.246094" y="405.917969"/>
  <use xlink:href="#glyph0-0" x="484.246094" y="405.917969"/>
  <use xlink:href="#glyph0-9" x="490.919922" y="405.917969"/>
  <use xlink:href="#glyph0-6" x="497.59375" y="405.917969"/>
  <use xlink:href="#glyph0-7" x="500.927734" y="405.917969"/>
  <use xlink:href="#glyph0-8" x="504.261719" y="405.917969"/>
  <use xlink:href="#glyph0-7" x="510.261719" y="405.917969"/>
</g>
<g style="fill:rgb(0%,0%,0%);fill-opacity:1;">
  <use xlink:href="#glyph0-1" x="464.898438" y="395.800781"/>
  <use xlink:href="#glyph0-2" x="471.572266" y="395.800781"/>
  <use xlink:href="#glyph0-3" x="478.246094" y="395.800781"/>
  <use xlink:href="#glyph0-0" x="484.246094" y="395.800781"/>
  <use xlink:href="#glyph0-10" x="490.919922" y="395.800781"/>
  <use xlink:href="#glyph0-6" x="497.59375" y="395.800781"/>
  <use xlink:href="#glyph0-7" x="500.927734" y="395.800781"/>
  <use xlink:href="#glyph0-8" x="504.261719" y="395.800781"/>
  <use xlink:href="#glyph0-7" x="510.261719" y="395.800781"/>
</g>
<g clip-path="url(#clip3)" clip-rule="nonzero">
<path style="fill:none;stroke-width:0.75;stroke-linecap:round;stroke-linejoin:round;stroke:rgb(13.333333%,54.509804%,0%);stroke-opacity:1;stroke-miterlimit:10;" d="M 336.015625 371.28125 L 336.015625 381.386719 "/>
<path style="fill:none;stroke-width:0.75;stroke-linecap:round;stroke-linejoin:round;stroke:rgb(13.333333%,54.509804%,0%);stroke-opacity:1;stroke-miterlimit:10;" d="M 336.015625 381.386719 L 458.398438 381.386719 "/>
<path style="fill:none;stroke-width:0.75;stroke-linecap:round;stroke-linejoin:round;stroke:rgb(13.333333%,54.509804%,0%);stroke-opacity:1;stroke-miterlimit:10;" d="M 336.015625 371.28125 L 336.015625 361.171875 "/>
<path style="fill:none;stroke-width:0.75;stroke-linecap:round;stroke-linejoin:round;stroke:rgb(13.333333%,54.509804%,0%);stroke-opacity:1;stroke-miterlimit:10;" d="M 336.015625 361.171875 L 347.789063 361.171875 "/>
</g>
<g style="fill:rgb(0%,0%,0%);fill-opacity:1;">
  <use xlink:href="#glyph0-1" x="464.898438" y="385.683594"/>
  <use xlink:href="#glyph0-2" x="471.572266" y="385.683594"/>
  <use xlink:href="#glyph0-3" x="478.246094" y="385.683594"/>
  <use xlink:href="#glyph0-5" x="484.246094" y="385.683594"/>
  <use xlink:href="#glyph0-11" x="490.919922" y="385.683594"/>
  <use xlink:href="#glyph0-6" x="497.59375" y="385.683594"/>
  <use xlink:href="#glyph0-7" x="500.927734" y="385.683594"/>
  <use xlink:href="#glyph0-8" x="504.261719" y="385.683594"/>
  <use xlink:href="#glyph0-7" x="510.261719" y="385.683594"/>
</g>
<g clip-path="url(#clip4)" clip-rule="nonzero">
<path style="fill:none;stroke-width:0.75;stroke-linecap:round;stroke-linejoin:round;stroke:rgb(13.333333%,54.509804%,0%);stroke-opacity:1;stroke-miterlimit:10;" d="M 347.789063 361.171875 L 347.789063 371.269531 "/>
<path style="fill:none;stroke-width:0.75;stroke-linecap:round;stroke-linejoin:round;stroke:rgb(13.333333%,54.509804%,0%);stroke-opacity:1;stroke-miterlimit:10;" d="M 347.789063 371.269531 L 458.398438 371.269531 "/>
<path style="fill:none;stroke-width:0.75;stroke-linecap:round;stroke-linejoin:round;stroke:rgb(13.333333%,54.509804%,0%);stroke-opacity:1;stroke-miterlimit:10;" d="M 347.789063 361.171875 L 347.789063 351.074219 "/>
<path style="fill:none;stroke-width:0.75;stroke-linecap:round;stroke-linejoin:round;stroke:rgb(13.333333%,54.509804%,0%);stroke-opacity:1;stroke-miterlimit:10;" d="M 347.789063 351.074219 L 355.246094 351.074219 "/>
</g>
<g style="fill:rgb(0%,0%,0%);fill-opacity:1;">
  <use xlink:href="#glyph0-1" x="464.898438" y="375.566406"/>
  <use xlink:href="#glyph0-2" x="471.572266" y="375.566406"/>
  <use xlink:href="#glyph0-3" x="478.246094" y="375.566406"/>
  <use xlink:href="#glyph0-0" x="484.246094" y="375.566406"/>
  <use xlink:href="#glyph0-12" x="490.919922" y="375.566406"/>
  <use xlink:href="#glyph0-6" x="497.59375" y="375.566406"/>
  <use xlink:href="#glyph0-7" x="500.927734" y="375.566406"/>
  <use xlink:href="#glyph0-8" x="504.261719" y="375.566406"/>
  <use xlink:href="#glyph0-7" x="510.261719" y="375.566406"/>
</g>
<g clip-path="url(#clip5)" clip-rule="nonzero">
<path style="fill:none;stroke-width:0.75;stroke-linecap:round;stroke-linejoin:round;stroke:rgb(13.333333%,54.509804%,0%);stroke-opacity:1;stroke-miterlimit:10;" d="M 355.246094 351.074219 L 355.246094 361.152344 "/>
<path style="fill:none;stroke-width:0.75;stroke-linecap:round;stroke-linejoin:round;stroke:rgb(13.333333%,54.509804%,0%);stroke-opacity:1;stroke-miterlimit:10;" d="M 355.246094 361.152344 L 458.398438 361.152344 "/>
<path style="fill:none;stroke-width:0.75;stroke-linecap:round;stroke-linejoin:round;stroke:rgb(13.333333%,54.509804%,0%);stroke-opacity:1;stroke-miterlimit:10;" d="M 355.246094 351.074219 L 355.246094 340.996094 "/>
<path style="fill:none;stroke-width:0.75;stroke-linecap:round;stroke-linejoin:round;stroke:rgb(13.333333%,54.509804%,0%);stroke-opacity:1;stroke-miterlimit:10;" d="M 355.246094 340.996094 L 356.46875 340.996094 "/>
</g>
<g style="fill:rgb(0%,0%,0%);fill-opacity:1;">
  <use xlink:href="#glyph0-1" x="464.898438" y="365.449219"/>
  <use xlink:href="#glyph0-2" x="471.572266" y="365.449219"/>
  <use xlink:href="#glyph0-3" x="478.246094" y="365.449219"/>
  <use xlink:href="#glyph0-10" x="484.246094" y="365.449219"/>
  <use xlink:href="#glyph0-6" x="490.919922" y="365.449219"/>
  <use xlink:href="#glyph0-7" x="494.253906" y="365.449219"/>
  <use xlink:href="#glyph0-8" x="497.587891" y="365.449219"/>
  <use xlink:href="#glyph0-7" x="503.587891" y="365.449219"/>
</g>
<g clip-path="url(#clip6)" clip-rule="nonzero">
<path style="fill:none;stroke-width:0.75;stroke-linecap:round;stroke-linejoin:round;stroke:rgb(13.333333%,54.509804%,0%);stroke-opacity:1;stroke-miterlimit:10;" d="M 356.46875 340.996094 L 356.46875 351.035156 "/>
<path style="fill:none;stroke-width:0.75;stroke-linecap:round;stroke-linejoin:round;stroke:rgb(13.333333%,54.509804%,0%);stroke-opacity:1;stroke-miterlimit:10;" d="M 356.46875 351.035156 L 458.398438 351.035156 "/>
<path style="fill:none;stroke-width:0.75;stroke-linecap:round;stroke-linejoin:round;stroke:rgb(13.333333%,54.509804%,0%);stroke-opacity:1;stroke-miterlimit:10;" d="M 356.46875 340.996094 L 356.46875 330.957031 "/>
<path style="fill:none;stroke-width:0.75;stroke-linecap:round;stroke-linejoin:round;stroke:rgb(13.333333%,54.509804%,0%);stroke-opacity:1;stroke-miterlimit:10;" d="M 356.46875 330.957031 L 356.976563 330.957031 "/>
</g>
<g style="fill:rgb(0%,0%,0%);fill-opacity:1;">
  <use xlink:href="#glyph0-1" x="464.898438" y="355.332031"/>
  <use xlink:href="#glyph0-2" x="471.572266" y="355.332031"/>
  <use xlink:href="#glyph0-3" x="478.246094" y="355.332031"/>
  <use xlink:href="#glyph0-0" x="484.246094" y="355.332031"/>
  <use xlink:href="#glyph0-5" x="490.919922" y="355.332031"/>
  <use xlink:href="#glyph0-6" x="497.59375" y="355.332031"/>
  <use xlink:href="#glyph0-7" x="500.927734" y="355.332031"/>
  <use xlink:href="#glyph0-8" x="504.261719" y="355.332031"/>
  <use xlink:href="#glyph0-7" x="510.261719" y="355.332031"/>
</g>
<g clip-path="url(#clip7)" clip-rule="nonzero">
<path style="fill:none;stroke-width:0.75;stroke-linecap:round;stroke-linejoin:round;stroke:rgb(13.333333%,54.509804%,0%);stroke-opacity:1;stroke-miterlimit:10;" d="M 356.976563 330.957031 L 356.976563 340.917969 "/>
<path style="fill:none;stroke-width:0.75;stroke-linecap:round;stroke-linejoin:round;stroke:rgb(13.333333%,54.509804%,0%);stroke-opacity:1;stroke-miterlimit:10;" d="M 356.976563 340.917969 L 458.398438 340.917969 "/>
<path style="fill:none;stroke-width:0.75;stroke-linecap:round;stroke-linejoin:round;stroke:rgb(13.333333%,54.509804%,0%);stroke-opacity:1;stroke-miterlimit:10;" d="M 356.976563 330.957031 L 356.976563 321 "/>
<path style="fill:none;stroke-width:0.75;stroke-linecap:round;stroke-linejoin:round;stroke:rgb(13.333333%,54.509804%,0%);stroke-opacity:1;stroke-miterlimit:10;" d="M 356.976563 321 L 364.152344 321 "/>
</g>
<g style="fill:rgb(0%,0%,0%);fill-opacity:1;">
  <use xlink:href="#glyph0-1" x="464.898438" y="345.210938"/>
  <use xlink:href="#glyph0-2" x="471.572266" y="345.210938"/>
  <use xlink:href="#glyph0-3" x="478.246094" y="345.210938"/>
  <use xlink:href="#glyph0-4" x="484.246094" y="345.210938"/>
  <use xlink:href="#glyph0-6" x="490.919922" y="345.210938"/>
  <use xlink:href="#glyph0-7" x="494.253906" y="345.210938"/>
  <use xlink:href="#glyph0-8" x="497.587891" y="345.210938"/>
  <use xlink:href="#glyph0-7" x="503.587891" y="345.210938"/>
</g>
<g clip-path="url(#clip8)" clip-rule="nonzero">
<path style="fill:none;stroke-width:0.75;stroke-linecap:round;stroke-linejoin:round;stroke:rgb(13.333333%,54.509804%,0%);stroke-opacity:1;stroke-miterlimit:10;" d="M 364.152344 321 L 364.152344 330.800781 "/>
<path style="fill:none;stroke-width:0.75;stroke-linecap:round;stroke-linejoin:round;stroke:rgb(13.333333%,54.509804%,0%);stroke-opacity:1;stroke-miterlimit:10;" d="M 364.152344 330.800781 L 458.398438 330.800781 "/>
<path style="fill:none;stroke-width:0.75;stroke-linecap:round;stroke-linejoin:round;stroke:rgb(13.333333%,54.509804%,0%);stroke-opacity:1;stroke-miterlimit:10;" d="M 364.152344 321 L 364.152344 311.195313 "/>
<path style="fill:none;stroke-width:0.75;stroke-linecap:round;stroke-linejoin:round;stroke:rgb(13.333333%,54.509804%,0%);stroke-opacity:1;stroke-miterlimit:10;" d="M 364.152344 311.195313 L 368.492188 311.195313 "/>
</g>
<g style="fill:rgb(0%,0%,0%);fill-opacity:1;">
  <use xlink:href="#glyph0-1" x="464.898438" y="335.09375"/>
  <use xlink:href="#glyph0-2" x="471.572266" y="335.09375"/>
  <use xlink:href="#glyph0-3" x="478.246094" y="335.09375"/>
  <use xlink:href="#glyph0-9" x="484.246094" y="335.09375"/>
  <use xlink:href="#glyph0-6" x="490.919922" y="335.09375"/>
  <use xlink:href="#glyph0-7" x="494.253906" y="335.09375"/>
  <use xlink:href="#glyph0-8" x="497.587891" y="335.09375"/>
  <use xlink:href="#glyph0-7" x="503.587891" y="335.09375"/>
</g>
<g clip-path="url(#clip9)" clip-rule="nonzero">
<path style="fill:none;stroke-width:0.75;stroke-linecap:round;stroke-linejoin:round;stroke:rgb(13.333333%,54.509804%,0%);stroke-opacity:1;stroke-miterlimit:10;" d="M 368.492188 311.195313 L 368.492188 320.683594 "/>
<path style="fill:none;stroke-width:0.75;stroke-linecap:round;stroke-linejoin:round;stroke:rgb(13.333333%,54.509804%,0%);stroke-opacity:1;stroke-miterlimit:10;" d="M 368.492188 320.683594 L 458.398438 320.683594 "/>
<path style="fill:none;stroke-width:0.75;stroke-linecap:round;stroke-linejoin:round;stroke:rgb(13.333333%,54.509804%,0%);stroke-opacity:1;stroke-miterlimit:10;" d="M 368.492188 311.195313 L 368.492188 301.710938 "/>
<path style="fill:none;stroke-width:0.75;stroke-linecap:round;stroke-linejoin:round;stroke:rgb(13.333333%,54.509804%,0%);stroke-opacity:1;stroke-miterlimit:10;" d="M 368.492188 301.710938 L 370.945313 301.710938 "/>
</g>
<g style="fill:rgb(0%,0%,0%);fill-opacity:1;">
  <use xlink:href="#glyph0-1" x="464.898438" y="324.976563"/>
  <use xlink:href="#glyph0-2" x="471.572266" y="324.976563"/>
  <use xlink:href="#glyph0-3" x="478.246094" y="324.976563"/>
  <use xlink:href="#glyph0-0" x="484.246094" y="324.976563"/>
  <use xlink:href="#glyph0-4" x="490.919922" y="324.976563"/>
  <use xlink:href="#glyph0-6" x="497.59375" y="324.976563"/>
  <use xlink:href="#glyph0-7" x="500.927734" y="324.976563"/>
  <use xlink:href="#glyph0-8" x="504.261719" y="324.976563"/>
  <use xlink:href="#glyph0-7" x="510.261719" y="324.976563"/>
</g>
<g clip-path="url(#clip10)" clip-rule="nonzero">
<path style="fill:none;stroke-width:0.75;stroke-linecap:round;stroke-linejoin:round;stroke:rgb(13.333333%,54.509804%,0%);stroke-opacity:1;stroke-miterlimit:10;" d="M 370.945313 301.710938 L 370.945313 310.566406 "/>
<path style="fill:none;stroke-width:0.75;stroke-linecap:round;stroke-linejoin:round;stroke:rgb(13.333333%,54.509804%,0%);stroke-opacity:1;stroke-miterlimit:10;" d="M 370.945313 310.566406 L 458.398438 310.566406 "/>
<path style="fill:none;stroke-width:0.75;stroke-linecap:round;stroke-linejoin:round;stroke:rgb(13.333333%,54.509804%,0%);stroke-opacity:1;stroke-miterlimit:10;" d="M 370.945313 301.710938 L 370.945313 292.859375 "/>
<path style="fill:none;stroke-width:0.75;stroke-linecap:round;stroke-linejoin:round;stroke:rgb(13.333333%,54.509804%,0%);stroke-opacity:1;stroke-miterlimit:10;" d="M 370.945313 292.859375 L 373.867188 292.859375 "/>
</g>
<g style="fill:rgb(0%,0%,0%);fill-opacity:1;">
  <use xlink:href="#glyph0-1" x="464.898438" y="314.859375"/>
  <use xlink:href="#glyph0-2" x="471.572266" y="314.859375"/>
  <use xlink:href="#glyph0-3" x="478.246094" y="314.859375"/>
  <use xlink:href="#glyph0-5" x="484.246094" y="314.859375"/>
  <use xlink:href="#glyph0-5" x="490.919922" y="314.859375"/>
  <use xlink:href="#glyph0-6" x="497.59375" y="314.859375"/>
  <use xlink:href="#glyph0-7" x="500.927734" y="314.859375"/>
  <use xlink:href="#glyph0-8" x="504.261719" y="314.859375"/>
  <use xlink:href="#glyph0-7" x="510.261719" y="314.859375"/>
</g>
<g clip-path="url(#clip11)" clip-rule="nonzero">
<path style="fill:none;stroke-width:0.75;stroke-linecap:round;stroke-linejoin:round;stroke:rgb(13.333333%,54.509804%,0%);stroke-opacity:1;stroke-miterlimit:10;" d="M 373.867188 292.859375 L 373.867188 300.445313 "/>
<path style="fill:none;stroke-width:0.75;stroke-linecap:round;stroke-linejoin:round;stroke:rgb(13.333333%,54.509804%,0%);stroke-opacity:1;stroke-miterlimit:10;" d="M 373.867188 300.445313 L 458.398438 300.445313 "/>
<path style="fill:none;stroke-width:0.75;stroke-linecap:round;stroke-linejoin:round;stroke:rgb(13.333333%,54.509804%,0%);stroke-opacity:1;stroke-miterlimit:10;" d="M 373.867188 292.859375 L 373.867188 285.269531 "/>
<path style="fill:none;stroke-width:0.75;stroke-linecap:round;stroke-linejoin:round;stroke:rgb(13.333333%,54.509804%,0%);stroke-opacity:1;stroke-miterlimit:10;" d="M 373.867188 285.269531 L 378.941406 285.269531 "/>
</g>
<g style="fill:rgb(0%,0%,0%);fill-opacity:1;">
  <use xlink:href="#glyph0-1" x="464.898438" y="304.742188"/>
  <use xlink:href="#glyph0-2" x="471.572266" y="304.742188"/>
  <use xlink:href="#glyph0-3" x="478.246094" y="304.742188"/>
  <use xlink:href="#glyph0-0" x="484.246094" y="304.742188"/>
  <use xlink:href="#glyph0-11" x="490.919922" y="304.742188"/>
  <use xlink:href="#glyph0-6" x="497.59375" y="304.742188"/>
  <use xlink:href="#glyph0-7" x="500.927734" y="304.742188"/>
  <use xlink:href="#glyph0-8" x="504.261719" y="304.742188"/>
  <use xlink:href="#glyph0-7" x="510.261719" y="304.742188"/>
</g>
<g clip-path="url(#clip12)" clip-rule="nonzero">
<path style="fill:none;stroke-width:0.75;stroke-linecap:round;stroke-linejoin:round;stroke:rgb(13.333333%,54.509804%,0%);stroke-opacity:1;stroke-miterlimit:10;" d="M 378.941406 285.269531 L 378.941406 290.328125 "/>
<path style="fill:none;stroke-width:0.75;stroke-linecap:round;stroke-linejoin:round;stroke:rgb(13.333333%,54.509804%,0%);stroke-opacity:1;stroke-miterlimit:10;" d="M 378.941406 290.328125 L 458.398438 290.328125 "/>
<path style="fill:none;stroke-width:0.75;stroke-linecap:round;stroke-linejoin:round;stroke:rgb(13.333333%,54.509804%,0%);stroke-opacity:1;stroke-miterlimit:10;" d="M 378.941406 285.269531 L 378.941406 280.210938 "/>
<path style="fill:none;stroke-width:0.75;stroke-linecap:round;stroke-linejoin:round;stroke:rgb(13.333333%,54.509804%,0%);stroke-opacity:1;stroke-miterlimit:10;" d="M 378.941406 280.210938 L 458.398438 280.210938 "/>
</g>
<g style="fill:rgb(0%,0%,0%);fill-opacity:1;">
  <use xlink:href="#glyph0-1" x="464.898438" y="294.625"/>
  <use xlink:href="#glyph0-2" x="471.572266" y="294.625"/>
  <use xlink:href="#glyph0-3" x="478.246094" y="294.625"/>
  <use xlink:href="#glyph0-0" x="484.246094" y="294.625"/>
  <use xlink:href="#glyph0-13" x="490.919922" y="294.625"/>
  <use xlink:href="#glyph0-6" x="497.59375" y="294.625"/>
  <use xlink:href="#glyph0-7" x="500.927734" y="294.625"/>
  <use xlink:href="#glyph0-8" x="504.261719" y="294.625"/>
  <use xlink:href="#glyph0-7" x="510.261719" y="294.625"/>
</g>
<g style="fill:rgb(0%,0%,0%);fill-opacity:1;">
  <use xlink:href="#glyph0-1" x="464.898438" y="284.507813"/>
  <use xlink:href="#glyph0-2" x="471.572266" y="284.507813"/>
  <use xlink:href="#glyph0-3" x="478.246094" y="284.507813"/>
  <use xlink:href="#glyph0-0" x="484.246094" y="284.507813"/>
  <use xlink:href="#glyph0-14" x="490.919922" y="284.507813"/>
  <use xlink:href="#glyph0-6" x="497.59375" y="284.507813"/>
  <use xlink:href="#glyph0-7" x="500.927734" y="284.507813"/>
  <use xlink:href="#glyph0-8" x="504.261719" y="284.507813"/>
  <use xlink:href="#glyph0-7" x="510.261719" y="284.507813"/>
</g>
<g clip-path="url(#clip13)" clip-rule="nonzero">
<path style="fill:none;stroke-width:0.75;stroke-linecap:round;stroke-linejoin:round;stroke:rgb(13.333333%,54.509804%,0%);stroke-opacity:1;stroke-miterlimit:10;" d="M 294.882813 260.609375 L 294.882813 270.09375 "/>
<path style="fill:none;stroke-width:0.75;stroke-linecap:round;stroke-linejoin:round;stroke:rgb(13.333333%,54.509804%,0%);stroke-opacity:1;stroke-miterlimit:10;" d="M 294.882813 270.09375 L 458.398438 270.09375 "/>
<path style="fill:none;stroke-width:0.75;stroke-linecap:round;stroke-linejoin:round;stroke:rgb(13.333333%,54.509804%,0%);stroke-opacity:1;stroke-miterlimit:10;" d="M 294.882813 260.609375 L 294.882813 251.125 "/>
<path style="fill:none;stroke-width:0.75;stroke-linecap:round;stroke-linejoin:round;stroke:rgb(13.333333%,54.509804%,0%);stroke-opacity:1;stroke-miterlimit:10;" d="M 294.882813 251.125 L 299.941406 251.125 "/>
</g>
<g style="fill:rgb(0%,0%,0%);fill-opacity:1;">
  <use xlink:href="#glyph0-1" x="464.898438" y="274.390625"/>
  <use xlink:href="#glyph0-2" x="471.572266" y="274.390625"/>
  <use xlink:href="#glyph0-3" x="478.246094" y="274.390625"/>
  <use xlink:href="#glyph0-5" x="484.246094" y="274.390625"/>
  <use xlink:href="#glyph0-9" x="490.919922" y="274.390625"/>
  <use xlink:href="#glyph0-6" x="497.59375" y="274.390625"/>
  <use xlink:href="#glyph0-7" x="500.927734" y="274.390625"/>
  <use xlink:href="#glyph0-8" x="504.261719" y="274.390625"/>
  <use xlink:href="#glyph0-7" x="510.261719" y="274.390625"/>
</g>
<g clip-path="url(#clip14)" clip-rule="nonzero">
<path style="fill:none;stroke-width:0.75;stroke-linecap:round;stroke-linejoin:round;stroke:rgb(13.333333%,54.509804%,0%);stroke-opacity:1;stroke-miterlimit:10;" d="M 299.941406 251.125 L 299.941406 259.976563 "/>
<path style="fill:none;stroke-width:0.75;stroke-linecap:round;stroke-linejoin:round;stroke:rgb(13.333333%,54.509804%,0%);stroke-opacity:1;stroke-miterlimit:10;" d="M 299.941406 259.976563 L 458.398438 259.976563 "/>
<path style="fill:none;stroke-width:0.75;stroke-linecap:round;stroke-linejoin:round;stroke:rgb(13.333333%,54.509804%,0%);stroke-opacity:1;stroke-miterlimit:10;" d="M 299.941406 251.125 L 299.941406 242.269531 "/>
<path style="fill:none;stroke-width:0.75;stroke-linecap:round;stroke-linejoin:round;stroke:rgb(13.333333%,54.509804%,0%);stroke-opacity:1;stroke-miterlimit:10;" d="M 299.941406 242.269531 L 302.261719 242.269531 "/>
</g>
<g style="fill:rgb(0%,0%,0%);fill-opacity:1;">
  <use xlink:href="#glyph0-1" x="464.898438" y="264.269531"/>
  <use xlink:href="#glyph0-2" x="471.572266" y="264.269531"/>
  <use xlink:href="#glyph0-3" x="478.246094" y="264.269531"/>
  <use xlink:href="#glyph0-0" x="484.246094" y="264.269531"/>
  <use xlink:href="#glyph0-15" x="490.919922" y="264.269531"/>
  <use xlink:href="#glyph0-6" x="497.59375" y="264.269531"/>
  <use xlink:href="#glyph0-7" x="500.927734" y="264.269531"/>
  <use xlink:href="#glyph0-8" x="504.261719" y="264.269531"/>
  <use xlink:href="#glyph0-7" x="510.261719" y="264.269531"/>
</g>
<g clip-path="url(#clip15)" clip-rule="nonzero">
<path style="fill:none;stroke-width:0.75;stroke-linecap:round;stroke-linejoin:round;stroke:rgb(13.333333%,54.509804%,0%);stroke-opacity:1;stroke-miterlimit:10;" d="M 302.261719 242.269531 L 302.261719 249.859375 "/>
<path style="fill:none;stroke-width:0.75;stroke-linecap:round;stroke-linejoin:round;stroke:rgb(13.333333%,54.509804%,0%);stroke-opacity:1;stroke-miterlimit:10;" d="M 302.261719 249.859375 L 458.398438 249.859375 "/>
<path style="fill:none;stroke-width:0.75;stroke-linecap:round;stroke-linejoin:round;stroke:rgb(13.333333%,54.509804%,0%);stroke-opacity:1;stroke-miterlimit:10;" d="M 302.261719 242.269531 L 302.261719 234.683594 "/>
<path style="fill:none;stroke-width:0.75;stroke-linecap:round;stroke-linejoin:round;stroke:rgb(13.333333%,54.509804%,0%);stroke-opacity:1;stroke-miterlimit:10;" d="M 302.261719 234.683594 L 317.40625 234.683594 "/>
</g>
<g style="fill:rgb(0%,0%,0%);fill-opacity:1;">
  <use xlink:href="#glyph0-1" x="464.898438" y="254.152344"/>
  <use xlink:href="#glyph0-2" x="471.572266" y="254.152344"/>
  <use xlink:href="#glyph0-3" x="478.246094" y="254.152344"/>
  <use xlink:href="#glyph0-0" x="484.246094" y="254.152344"/>
  <use xlink:href="#glyph0-6" x="490.919922" y="254.152344"/>
  <use xlink:href="#glyph0-7" x="494.253906" y="254.152344"/>
  <use xlink:href="#glyph0-8" x="497.587891" y="254.152344"/>
  <use xlink:href="#glyph0-7" x="503.587891" y="254.152344"/>
</g>
<g clip-path="url(#clip16)" clip-rule="nonzero">
<path style="fill:none;stroke-width:0.75;stroke-linecap:round;stroke-linejoin:round;stroke:rgb(13.333333%,54.509804%,0%);stroke-opacity:1;stroke-miterlimit:10;" d="M 317.40625 234.683594 L 317.40625 239.742188 "/>
<path style="fill:none;stroke-width:0.75;stroke-linecap:round;stroke-linejoin:round;stroke:rgb(13.333333%,54.509804%,0%);stroke-opacity:1;stroke-miterlimit:10;" d="M 317.40625 239.742188 L 458.398438 239.742188 "/>
<path style="fill:none;stroke-width:0.75;stroke-linecap:round;stroke-linejoin:round;stroke:rgb(13.333333%,54.509804%,0%);stroke-opacity:1;stroke-miterlimit:10;" d="M 317.40625 234.683594 L 317.40625 229.625 "/>
<path style="fill:none;stroke-width:0.75;stroke-linecap:round;stroke-linejoin:round;stroke:rgb(13.333333%,54.509804%,0%);stroke-opacity:1;stroke-miterlimit:10;" d="M 317.40625 229.625 L 458.398438 229.625 "/>
</g>
<g style="fill:rgb(0%,0%,0%);fill-opacity:1;">
  <use xlink:href="#glyph0-1" x="464.898438" y="244.035156"/>
  <use xlink:href="#glyph0-2" x="471.572266" y="244.035156"/>
  <use xlink:href="#glyph0-3" x="478.246094" y="244.035156"/>
  <use xlink:href="#glyph0-0" x="484.246094" y="244.035156"/>
  <use xlink:href="#glyph0-0" x="490.919922" y="244.035156"/>
  <use xlink:href="#glyph0-6" x="497.59375" y="244.035156"/>
  <use xlink:href="#glyph0-7" x="500.927734" y="244.035156"/>
  <use xlink:href="#glyph0-8" x="504.261719" y="244.035156"/>
  <use xlink:href="#glyph0-7" x="510.261719" y="244.035156"/>
</g>
<g style="fill:rgb(0%,0%,0%);fill-opacity:1;">
  <use xlink:href="#glyph0-1" x="464.898438" y="233.917969"/>
  <use xlink:href="#glyph0-2" x="471.572266" y="233.917969"/>
  <use xlink:href="#glyph0-3" x="478.246094" y="233.917969"/>
  <use xlink:href="#glyph0-5" x="484.246094" y="233.917969"/>
  <use xlink:href="#glyph0-12" x="490.919922" y="233.917969"/>
  <use xlink:href="#glyph0-6" x="497.59375" y="233.917969"/>
  <use xlink:href="#glyph0-7" x="500.927734" y="233.917969"/>
  <use xlink:href="#glyph0-8" x="504.261719" y="233.917969"/>
  <use xlink:href="#glyph0-7" x="510.261719" y="233.917969"/>
</g>
<g clip-path="url(#clip17)" clip-rule="nonzero">
<path style="fill:none;stroke-width:0.75;stroke-linecap:round;stroke-linejoin:round;stroke:rgb(0%,50.980392%,80.784314%);stroke-opacity:1;stroke-miterlimit:10;" d="M 180.570313 209.269531 L 180.570313 219.507813 "/>
<path style="fill:none;stroke-width:0.75;stroke-linecap:round;stroke-linejoin:round;stroke:rgb(0%,50.980392%,80.784314%);stroke-opacity:1;stroke-miterlimit:10;" d="M 180.570313 219.507813 L 458.398438 219.507813 "/>
<path style="fill:none;stroke-width:0.75;stroke-linecap:round;stroke-linejoin:round;stroke:rgb(0%,50.980392%,80.784314%);stroke-opacity:1;stroke-miterlimit:10;" d="M 180.570313 209.269531 L 180.570313 199.035156 "/>
<path style="fill:none;stroke-width:0.75;stroke-linecap:round;stroke-linejoin:round;stroke:rgb(0%,50.980392%,80.784314%);stroke-opacity:1;stroke-miterlimit:10;" d="M 180.570313 199.035156 L 188.523438 199.035156 "/>
</g>
<g style="fill:rgb(0%,0%,0%);fill-opacity:1;">
  <use xlink:href="#glyph0-1" x="464.898438" y="223.800781"/>
  <use xlink:href="#glyph0-2" x="471.572266" y="223.800781"/>
  <use xlink:href="#glyph0-3" x="478.246094" y="223.800781"/>
  <use xlink:href="#glyph0-5" x="484.246094" y="223.800781"/>
  <use xlink:href="#glyph0-0" x="490.919922" y="223.800781"/>
  <use xlink:href="#glyph0-6" x="497.59375" y="223.800781"/>
  <use xlink:href="#glyph0-7" x="500.927734" y="223.800781"/>
  <use xlink:href="#glyph0-8" x="504.261719" y="223.800781"/>
  <use xlink:href="#glyph0-7" x="510.261719" y="223.800781"/>
</g>
<g clip-path="url(#clip18)" clip-rule="nonzero">
<path style="fill:none;stroke-width:0.75;stroke-linecap:round;stroke-linejoin:round;stroke:rgb(0%,50.980392%,80.784314%);stroke-opacity:1;stroke-miterlimit:10;" d="M 188.523438 199.035156 L 188.523438 209.386719 "/>
<path style="fill:none;stroke-width:0.75;stroke-linecap:round;stroke-linejoin:round;stroke:rgb(0%,50.980392%,80.784314%);stroke-opacity:1;stroke-miterlimit:10;" d="M 188.523438 209.386719 L 458.398438 209.386719 "/>
<path style="fill:none;stroke-width:0.75;stroke-linecap:round;stroke-linejoin:round;stroke:rgb(0%,50.980392%,80.784314%);stroke-opacity:1;stroke-miterlimit:10;" d="M 188.523438 199.035156 L 188.523438 188.683594 "/>
<path style="fill:none;stroke-width:0.75;stroke-linecap:round;stroke-linejoin:round;stroke:rgb(0%,50.980392%,80.784314%);stroke-opacity:1;stroke-miterlimit:10;" d="M 188.523438 188.683594 L 193.898438 188.683594 "/>
</g>
<g style="fill:rgb(0%,0%,0%);fill-opacity:1;">
  <use xlink:href="#glyph0-1" x="464.898438" y="213.683594"/>
  <use xlink:href="#glyph0-2" x="471.572266" y="213.683594"/>
  <use xlink:href="#glyph0-3" x="478.246094" y="213.683594"/>
  <use xlink:href="#glyph0-11" x="484.246094" y="213.683594"/>
  <use xlink:href="#glyph0-6" x="490.919922" y="213.683594"/>
  <use xlink:href="#glyph0-7" x="494.253906" y="213.683594"/>
  <use xlink:href="#glyph0-8" x="497.587891" y="213.683594"/>
  <use xlink:href="#glyph0-7" x="503.587891" y="213.683594"/>
</g>
<g clip-path="url(#clip19)" clip-rule="nonzero">
<path style="fill:none;stroke-width:0.75;stroke-linecap:round;stroke-linejoin:round;stroke:rgb(0%,50.980392%,80.784314%);stroke-opacity:1;stroke-miterlimit:10;" d="M 193.898438 188.683594 L 193.898438 199.269531 "/>
<path style="fill:none;stroke-width:0.75;stroke-linecap:round;stroke-linejoin:round;stroke:rgb(0%,50.980392%,80.784314%);stroke-opacity:1;stroke-miterlimit:10;" d="M 193.898438 199.269531 L 458.398438 199.269531 "/>
<path style="fill:none;stroke-width:0.75;stroke-linecap:round;stroke-linejoin:round;stroke:rgb(0%,50.980392%,80.784314%);stroke-opacity:1;stroke-miterlimit:10;" d="M 193.898438 188.683594 L 193.898438 178.097656 "/>
<path style="fill:none;stroke-width:0.75;stroke-linecap:round;stroke-linejoin:round;stroke:rgb(0%,50.980392%,80.784314%);stroke-opacity:1;stroke-miterlimit:10;" d="M 193.898438 178.097656 L 198.273438 178.097656 "/>
</g>
<g style="fill:rgb(0%,0%,0%);fill-opacity:1;">
  <use xlink:href="#glyph0-1" x="464.898438" y="203.566406"/>
  <use xlink:href="#glyph0-2" x="471.572266" y="203.566406"/>
  <use xlink:href="#glyph0-3" x="478.246094" y="203.566406"/>
  <use xlink:href="#glyph0-4" x="484.246094" y="203.566406"/>
  <use xlink:href="#glyph0-4" x="490.919922" y="203.566406"/>
  <use xlink:href="#glyph0-6" x="497.59375" y="203.566406"/>
  <use xlink:href="#glyph0-7" x="500.927734" y="203.566406"/>
  <use xlink:href="#glyph0-8" x="504.261719" y="203.566406"/>
  <use xlink:href="#glyph0-7" x="510.261719" y="203.566406"/>
</g>
<g clip-path="url(#clip20)" clip-rule="nonzero">
<path style="fill:none;stroke-width:0.75;stroke-linecap:round;stroke-linejoin:round;stroke:rgb(0%,50.980392%,80.784314%);stroke-opacity:1;stroke-miterlimit:10;" d="M 198.273438 178.097656 L 198.273438 189.152344 "/>
<path style="fill:none;stroke-width:0.75;stroke-linecap:round;stroke-linejoin:round;stroke:rgb(0%,50.980392%,80.784314%);stroke-opacity:1;stroke-miterlimit:10;" d="M 198.273438 189.152344 L 458.398438 189.152344 "/>
<path style="fill:none;stroke-width:0.75;stroke-linecap:round;stroke-linejoin:round;stroke:rgb(0%,50.980392%,80.784314%);stroke-opacity:1;stroke-miterlimit:10;" d="M 198.273438 178.097656 L 198.273438 167.039063 "/>
<path style="fill:none;stroke-width:0.75;stroke-linecap:round;stroke-linejoin:round;stroke:rgb(0%,50.980392%,80.784314%);stroke-opacity:1;stroke-miterlimit:10;" d="M 198.273438 167.039063 L 201.332031 167.039063 "/>
</g>
<g style="fill:rgb(0%,0%,0%);fill-opacity:1;">
  <use xlink:href="#glyph0-1" x="464.898438" y="193.449219"/>
  <use xlink:href="#glyph0-2" x="471.572266" y="193.449219"/>
  <use xlink:href="#glyph0-3" x="478.246094" y="193.449219"/>
  <use xlink:href="#glyph0-5" x="484.246094" y="193.449219"/>
  <use xlink:href="#glyph0-10" x="490.919922" y="193.449219"/>
  <use xlink:href="#glyph0-6" x="497.59375" y="193.449219"/>
  <use xlink:href="#glyph0-7" x="500.927734" y="193.449219"/>
  <use xlink:href="#glyph0-8" x="504.261719" y="193.449219"/>
  <use xlink:href="#glyph0-7" x="510.261719" y="193.449219"/>
</g>
<g clip-path="url(#clip21)" clip-rule="nonzero">
<path style="fill:none;stroke-width:0.75;stroke-linecap:round;stroke-linejoin:round;stroke:rgb(0%,50.980392%,80.784314%);stroke-opacity:1;stroke-miterlimit:10;" d="M 201.332031 167.039063 L 201.332031 179.035156 "/>
<path style="fill:none;stroke-width:0.75;stroke-linecap:round;stroke-linejoin:round;stroke:rgb(0%,50.980392%,80.784314%);stroke-opacity:1;stroke-miterlimit:10;" d="M 201.332031 179.035156 L 458.398438 179.035156 "/>
<path style="fill:none;stroke-width:0.75;stroke-linecap:round;stroke-linejoin:round;stroke:rgb(0%,50.980392%,80.784314%);stroke-opacity:1;stroke-miterlimit:10;" d="M 201.332031 167.039063 L 201.332031 155.046875 "/>
<path style="fill:none;stroke-width:0.75;stroke-linecap:round;stroke-linejoin:round;stroke:rgb(0%,50.980392%,80.784314%);stroke-opacity:1;stroke-miterlimit:10;" d="M 201.332031 155.046875 L 226.210938 155.046875 "/>
</g>
<g style="fill:rgb(0%,0%,0%);fill-opacity:1;">
  <use xlink:href="#glyph0-1" x="464.898438" y="183.332031"/>
  <use xlink:href="#glyph0-2" x="471.572266" y="183.332031"/>
  <use xlink:href="#glyph0-3" x="478.246094" y="183.332031"/>
  <use xlink:href="#glyph0-13" x="484.246094" y="183.332031"/>
  <use xlink:href="#glyph0-6" x="490.919922" y="183.332031"/>
  <use xlink:href="#glyph0-7" x="494.253906" y="183.332031"/>
  <use xlink:href="#glyph0-8" x="497.587891" y="183.332031"/>
  <use xlink:href="#glyph0-7" x="503.587891" y="183.332031"/>
</g>
<g clip-path="url(#clip22)" clip-rule="nonzero">
<path style="fill:none;stroke-width:0.75;stroke-linecap:round;stroke-linejoin:round;stroke:rgb(0%,50.980392%,80.784314%);stroke-opacity:1;stroke-miterlimit:10;" d="M 226.210938 155.046875 L 226.210938 168.917969 "/>
<path style="fill:none;stroke-width:0.75;stroke-linecap:round;stroke-linejoin:round;stroke:rgb(0%,50.980392%,80.784314%);stroke-opacity:1;stroke-miterlimit:10;" d="M 226.210938 168.917969 L 458.398438 168.917969 "/>
<path style="fill:none;stroke-width:0.75;stroke-linecap:round;stroke-linejoin:round;stroke:rgb(0%,50.980392%,80.784314%);stroke-opacity:1;stroke-miterlimit:10;" d="M 226.210938 155.046875 L 226.210938 141.171875 "/>
<path style="fill:none;stroke-width:0.75;stroke-linecap:round;stroke-linejoin:round;stroke:rgb(0%,50.980392%,80.784314%);stroke-opacity:1;stroke-miterlimit:10;" d="M 226.210938 141.171875 L 229.703125 141.171875 "/>
</g>
<g style="fill:rgb(0%,0%,0%);fill-opacity:1;">
  <use xlink:href="#glyph0-1" x="464.898438" y="173.210938"/>
  <use xlink:href="#glyph0-2" x="471.572266" y="173.210938"/>
  <use xlink:href="#glyph0-3" x="478.246094" y="173.210938"/>
  <use xlink:href="#glyph0-4" x="484.246094" y="173.210938"/>
  <use xlink:href="#glyph0-15" x="490.919922" y="173.210938"/>
  <use xlink:href="#glyph0-6" x="497.59375" y="173.210938"/>
  <use xlink:href="#glyph0-7" x="500.927734" y="173.210938"/>
  <use xlink:href="#glyph0-8" x="504.261719" y="173.210938"/>
  <use xlink:href="#glyph0-7" x="510.261719" y="173.210938"/>
</g>
<g clip-path="url(#clip23)" clip-rule="nonzero">
<path style="fill:none;stroke-width:0.75;stroke-linecap:round;stroke-linejoin:round;stroke:rgb(0%,50.980392%,80.784314%);stroke-opacity:1;stroke-miterlimit:10;" d="M 229.703125 141.171875 L 229.703125 153.742188 "/>
<path style="fill:none;stroke-width:0.75;stroke-linecap:round;stroke-linejoin:round;stroke:rgb(0%,50.980392%,80.784314%);stroke-opacity:1;stroke-miterlimit:10;" d="M 229.703125 153.742188 L 241.007813 153.742188 "/>
<path style="fill:none;stroke-width:0.75;stroke-linecap:round;stroke-linejoin:round;stroke:rgb(0%,50.980392%,80.784314%);stroke-opacity:1;stroke-miterlimit:10;" d="M 229.703125 141.171875 L 229.703125 128.605469 "/>
<path style="fill:none;stroke-width:0.75;stroke-linecap:round;stroke-linejoin:round;stroke:rgb(0%,50.980392%,80.784314%);stroke-opacity:1;stroke-miterlimit:10;" d="M 229.703125 128.605469 L 240.304688 128.605469 "/>
<path style="fill:none;stroke-width:0.75;stroke-linecap:round;stroke-linejoin:round;stroke:rgb(0%,50.980392%,80.784314%);stroke-opacity:1;stroke-miterlimit:10;" d="M 241.007813 153.742188 L 241.007813 158.800781 "/>
<path style="fill:none;stroke-width:0.75;stroke-linecap:round;stroke-linejoin:round;stroke:rgb(0%,50.980392%,80.784314%);stroke-opacity:1;stroke-miterlimit:10;" d="M 241.007813 158.800781 L 458.398438 158.800781 "/>
<path style="fill:none;stroke-width:0.75;stroke-linecap:round;stroke-linejoin:round;stroke:rgb(0%,50.980392%,80.784314%);stroke-opacity:1;stroke-miterlimit:10;" d="M 241.007813 153.742188 L 241.007813 148.683594 "/>
<path style="fill:none;stroke-width:0.75;stroke-linecap:round;stroke-linejoin:round;stroke:rgb(0%,50.980392%,80.784314%);stroke-opacity:1;stroke-miterlimit:10;" d="M 241.007813 148.683594 L 458.398438 148.683594 "/>
</g>
<g style="fill:rgb(0%,0%,0%);fill-opacity:1;">
  <use xlink:href="#glyph0-1" x="464.898438" y="163.09375"/>
  <use xlink:href="#glyph0-2" x="471.572266" y="163.09375"/>
  <use xlink:href="#glyph0-3" x="478.246094" y="163.09375"/>
  <use xlink:href="#glyph0-5" x="484.246094" y="163.09375"/>
  <use xlink:href="#glyph0-14" x="490.919922" y="163.09375"/>
  <use xlink:href="#glyph0-6" x="497.59375" y="163.09375"/>
  <use xlink:href="#glyph0-7" x="500.927734" y="163.09375"/>
  <use xlink:href="#glyph0-8" x="504.261719" y="163.09375"/>
  <use xlink:href="#glyph0-7" x="510.261719" y="163.09375"/>
</g>
<g style="fill:rgb(0%,0%,0%);fill-opacity:1;">
  <use xlink:href="#glyph0-1" x="464.898438" y="152.976563"/>
  <use xlink:href="#glyph0-2" x="471.572266" y="152.976563"/>
  <use xlink:href="#glyph0-3" x="478.246094" y="152.976563"/>
  <use xlink:href="#glyph0-12" x="484.246094" y="152.976563"/>
  <use xlink:href="#glyph0-6" x="490.919922" y="152.976563"/>
  <use xlink:href="#glyph0-7" x="494.253906" y="152.976563"/>
  <use xlink:href="#glyph0-8" x="497.587891" y="152.976563"/>
  <use xlink:href="#glyph0-7" x="503.587891" y="152.976563"/>
</g>
<g clip-path="url(#clip24)" clip-rule="nonzero">
<path style="fill:none;stroke-width:0.75;stroke-linecap:round;stroke-linejoin:round;stroke:rgb(0%,50.980392%,80.784314%);stroke-opacity:1;stroke-miterlimit:10;" d="M 240.304688 128.605469 L 240.304688 138.566406 "/>
<path style="fill:none;stroke-width:0.75;stroke-linecap:round;stroke-linejoin:round;stroke:rgb(0%,50.980392%,80.784314%);stroke-opacity:1;stroke-miterlimit:10;" d="M 240.304688 138.566406 L 458.398438 138.566406 "/>
<path style="fill:none;stroke-width:0.75;stroke-linecap:round;stroke-linejoin:round;stroke:rgb(0%,50.980392%,80.784314%);stroke-opacity:1;stroke-miterlimit:10;" d="M 240.304688 128.605469 L 240.304688 118.644531 "/>
<path style="fill:none;stroke-width:0.75;stroke-linecap:round;stroke-linejoin:round;stroke:rgb(0%,50.980392%,80.784314%);stroke-opacity:1;stroke-miterlimit:10;" d="M 240.304688 118.644531 L 252.734375 118.644531 "/>
</g>
<g style="fill:rgb(0%,0%,0%);fill-opacity:1;">
  <use xlink:href="#glyph0-1" x="464.898438" y="142.859375"/>
  <use xlink:href="#glyph0-2" x="471.572266" y="142.859375"/>
  <use xlink:href="#glyph0-3" x="478.246094" y="142.859375"/>
  <use xlink:href="#glyph0-4" x="484.246094" y="142.859375"/>
  <use xlink:href="#glyph0-13" x="490.919922" y="142.859375"/>
  <use xlink:href="#glyph0-6" x="497.59375" y="142.859375"/>
  <use xlink:href="#glyph0-7" x="500.927734" y="142.859375"/>
  <use xlink:href="#glyph0-8" x="504.261719" y="142.859375"/>
  <use xlink:href="#glyph0-7" x="510.261719" y="142.859375"/>
</g>
<g clip-path="url(#clip25)" clip-rule="nonzero">
<path style="fill:none;stroke-width:0.75;stroke-linecap:round;stroke-linejoin:round;stroke:rgb(0%,50.980392%,80.784314%);stroke-opacity:1;stroke-miterlimit:10;" d="M 252.734375 118.644531 L 252.734375 128.445313 "/>
<path style="fill:none;stroke-width:0.75;stroke-linecap:round;stroke-linejoin:round;stroke:rgb(0%,50.980392%,80.784314%);stroke-opacity:1;stroke-miterlimit:10;" d="M 252.734375 128.445313 L 458.398438 128.445313 "/>
<path style="fill:none;stroke-width:0.75;stroke-linecap:round;stroke-linejoin:round;stroke:rgb(0%,50.980392%,80.784314%);stroke-opacity:1;stroke-miterlimit:10;" d="M 252.734375 118.644531 L 252.734375 108.84375 "/>
<path style="fill:none;stroke-width:0.75;stroke-linecap:round;stroke-linejoin:round;stroke:rgb(0%,50.980392%,80.784314%);stroke-opacity:1;stroke-miterlimit:10;" d="M 252.734375 108.84375 L 257.554688 108.84375 "/>
</g>
<g style="fill:rgb(0%,0%,0%);fill-opacity:1;">
  <use xlink:href="#glyph0-1" x="464.898438" y="132.742188"/>
  <use xlink:href="#glyph0-2" x="471.572266" y="132.742188"/>
  <use xlink:href="#glyph0-3" x="478.246094" y="132.742188"/>
  <use xlink:href="#glyph0-5" x="484.246094" y="132.742188"/>
  <use xlink:href="#glyph0-13" x="490.919922" y="132.742188"/>
  <use xlink:href="#glyph0-6" x="497.59375" y="132.742188"/>
  <use xlink:href="#glyph0-7" x="500.927734" y="132.742188"/>
  <use xlink:href="#glyph0-8" x="504.261719" y="132.742188"/>
  <use xlink:href="#glyph0-7" x="510.261719" y="132.742188"/>
</g>
<g clip-path="url(#clip26)" clip-rule="nonzero">
<path style="fill:none;stroke-width:0.75;stroke-linecap:round;stroke-linejoin:round;stroke:rgb(0%,50.980392%,80.784314%);stroke-opacity:1;stroke-miterlimit:10;" d="M 257.554688 108.84375 L 257.554688 118.328125 "/>
<path style="fill:none;stroke-width:0.75;stroke-linecap:round;stroke-linejoin:round;stroke:rgb(0%,50.980392%,80.784314%);stroke-opacity:1;stroke-miterlimit:10;" d="M 257.554688 118.328125 L 458.398438 118.328125 "/>
<path style="fill:none;stroke-width:0.75;stroke-linecap:round;stroke-linejoin:round;stroke:rgb(0%,50.980392%,80.784314%);stroke-opacity:1;stroke-miterlimit:10;" d="M 257.554688 108.84375 L 257.554688 99.359375 "/>
<path style="fill:none;stroke-width:0.75;stroke-linecap:round;stroke-linejoin:round;stroke:rgb(0%,50.980392%,80.784314%);stroke-opacity:1;stroke-miterlimit:10;" d="M 257.554688 99.359375 L 263.257813 99.359375 "/>
</g>
<g style="fill:rgb(0%,0%,0%);fill-opacity:1;">
  <use xlink:href="#glyph0-1" x="464.898438" y="122.625"/>
  <use xlink:href="#glyph0-2" x="471.572266" y="122.625"/>
  <use xlink:href="#glyph0-3" x="478.246094" y="122.625"/>
  <use xlink:href="#glyph0-5" x="484.246094" y="122.625"/>
  <use xlink:href="#glyph0-4" x="490.919922" y="122.625"/>
  <use xlink:href="#glyph0-6" x="497.59375" y="122.625"/>
  <use xlink:href="#glyph0-7" x="500.927734" y="122.625"/>
  <use xlink:href="#glyph0-8" x="504.261719" y="122.625"/>
  <use xlink:href="#glyph0-7" x="510.261719" y="122.625"/>
</g>
<g clip-path="url(#clip27)" clip-rule="nonzero">
<path style="fill:none;stroke-width:0.75;stroke-linecap:round;stroke-linejoin:round;stroke:rgb(0%,50.980392%,80.784314%);stroke-opacity:1;stroke-miterlimit:10;" d="M 263.257813 99.359375 L 263.257813 108.210938 "/>
<path style="fill:none;stroke-width:0.75;stroke-linecap:round;stroke-linejoin:round;stroke:rgb(0%,50.980392%,80.784314%);stroke-opacity:1;stroke-miterlimit:10;" d="M 263.257813 108.210938 L 458.398438 108.210938 "/>
<path style="fill:none;stroke-width:0.75;stroke-linecap:round;stroke-linejoin:round;stroke:rgb(0%,50.980392%,80.784314%);stroke-opacity:1;stroke-miterlimit:10;" d="M 263.257813 99.359375 L 263.257813 90.507813 "/>
<path style="fill:none;stroke-width:0.75;stroke-linecap:round;stroke-linejoin:round;stroke:rgb(0%,50.980392%,80.784314%);stroke-opacity:1;stroke-miterlimit:10;" d="M 263.257813 90.507813 L 272.925781 90.507813 "/>
</g>
<g style="fill:rgb(0%,0%,0%);fill-opacity:1;">
  <use xlink:href="#glyph0-1" x="464.898438" y="112.507813"/>
  <use xlink:href="#glyph0-2" x="471.572266" y="112.507813"/>
  <use xlink:href="#glyph0-3" x="478.246094" y="112.507813"/>
  <use xlink:href="#glyph0-5" x="484.246094" y="112.507813"/>
  <use xlink:href="#glyph0-15" x="490.919922" y="112.507813"/>
  <use xlink:href="#glyph0-6" x="497.59375" y="112.507813"/>
  <use xlink:href="#glyph0-7" x="500.927734" y="112.507813"/>
  <use xlink:href="#glyph0-8" x="504.261719" y="112.507813"/>
  <use xlink:href="#glyph0-7" x="510.261719" y="112.507813"/>
</g>
<g clip-path="url(#clip28)" clip-rule="nonzero">
<path style="fill:none;stroke-width:0.75;stroke-linecap:round;stroke-linejoin:round;stroke:rgb(0%,50.980392%,80.784314%);stroke-opacity:1;stroke-miterlimit:10;" d="M 272.925781 90.507813 L 272.925781 98.09375 "/>
<path style="fill:none;stroke-width:0.75;stroke-linecap:round;stroke-linejoin:round;stroke:rgb(0%,50.980392%,80.784314%);stroke-opacity:1;stroke-miterlimit:10;" d="M 272.925781 98.09375 L 458.398438 98.09375 "/>
<path style="fill:none;stroke-width:0.75;stroke-linecap:round;stroke-linejoin:round;stroke:rgb(0%,50.980392%,80.784314%);stroke-opacity:1;stroke-miterlimit:10;" d="M 272.925781 90.507813 L 272.925781 82.917969 "/>
<path style="fill:none;stroke-width:0.75;stroke-linecap:round;stroke-linejoin:round;stroke:rgb(0%,50.980392%,80.784314%);stroke-opacity:1;stroke-miterlimit:10;" d="M 272.925781 82.917969 L 273.699219 82.917969 "/>
</g>
<g style="fill:rgb(0%,0%,0%);fill-opacity:1;">
  <use xlink:href="#glyph0-1" x="464.898438" y="102.390625"/>
  <use xlink:href="#glyph0-2" x="471.572266" y="102.390625"/>
  <use xlink:href="#glyph0-3" x="478.246094" y="102.390625"/>
  <use xlink:href="#glyph0-14" x="484.246094" y="102.390625"/>
  <use xlink:href="#glyph0-6" x="490.919922" y="102.390625"/>
  <use xlink:href="#glyph0-7" x="494.253906" y="102.390625"/>
  <use xlink:href="#glyph0-8" x="497.587891" y="102.390625"/>
  <use xlink:href="#glyph0-7" x="503.587891" y="102.390625"/>
</g>
<g clip-path="url(#clip29)" clip-rule="nonzero">
<path style="fill:none;stroke-width:0.75;stroke-linecap:round;stroke-linejoin:round;stroke:rgb(0%,50.980392%,80.784314%);stroke-opacity:1;stroke-miterlimit:10;" d="M 273.699219 82.917969 L 273.699219 87.976563 "/>
<path style="fill:none;stroke-width:0.75;stroke-linecap:round;stroke-linejoin:round;stroke:rgb(0%,50.980392%,80.784314%);stroke-opacity:1;stroke-miterlimit:10;" d="M 273.699219 87.976563 L 458.398438 87.976563 "/>
<path style="fill:none;stroke-width:0.75;stroke-linecap:round;stroke-linejoin:round;stroke:rgb(0%,50.980392%,80.784314%);stroke-opacity:1;stroke-miterlimit:10;" d="M 273.699219 82.917969 L 273.699219 77.859375 "/>
<path style="fill:none;stroke-width:0.75;stroke-linecap:round;stroke-linejoin:round;stroke:rgb(0%,50.980392%,80.784314%);stroke-opacity:1;stroke-miterlimit:10;" d="M 273.699219 77.859375 L 458.398438 77.859375 "/>
</g>
<g style="fill:rgb(0%,0%,0%);fill-opacity:1;">
  <use xlink:href="#glyph0-1" x="464.898438" y="92.269531"/>
  <use xlink:href="#glyph0-2" x="471.572266" y="92.269531"/>
  <use xlink:href="#glyph0-3" x="478.246094" y="92.269531"/>
  <use xlink:href="#glyph0-5" x="484.246094" y="92.269531"/>
  <use xlink:href="#glyph0-6" x="490.919922" y="92.269531"/>
  <use xlink:href="#glyph0-7" x="494.253906" y="92.269531"/>
  <use xlink:href="#glyph0-8" x="497.587891" y="92.269531"/>
  <use xlink:href="#glyph0-7" x="503.587891" y="92.269531"/>
</g>
<g style="fill:rgb(0%,0%,0%);fill-opacity:1;">
  <use xlink:href="#glyph0-1" x="464.898438" y="82.152344"/>
  <use xlink:href="#glyph0-2" x="471.572266" y="82.152344"/>
  <use xlink:href="#glyph0-3" x="478.246094" y="82.152344"/>
  <use xlink:href="#glyph0-4" x="484.246094" y="82.152344"/>
  <use xlink:href="#glyph0-0" x="490.919922" y="82.152344"/>
  <use xlink:href="#glyph0-6" x="497.59375" y="82.152344"/>
  <use xlink:href="#glyph0-7" x="500.927734" y="82.152344"/>
  <use xlink:href="#glyph0-8" x="504.261719" y="82.152344"/>
  <use xlink:href="#glyph0-7" x="510.261719" y="82.152344"/>
</g>
</g>
</svg>
